[{
  "_id": {
    "$oid": "60b7ae772b7a803cdc353a98"
  },
  "Description": "Annual leave",
  "IsActive": true,
  "IsAdmin": false,
  "CreatedBy": "1",
  "ModifiedBy": "1",
  "CreatedDate": {
    "$date": "2021-06-01T22:00:00Z"
  },
  "ModifiedDate": {
    "$date": "2021-06-01T22:00:00Z"
  },
  "IsUnpaid": false
},{
  "_id": {
    "$oid": "60b7ae772b7a803cdc353a99"
  },
  "Description": "Sick leave",
  "IsActive": true,
  "IsAdmin": false,
  "CreatedBy": "1",
  "ModifiedBy": "1",
  "CreatedDate": {
    "$date": "2021-06-01T22:00:00Z"
  },
  "ModifiedDate": {
    "$date": "2021-06-01T22:00:00Z"
  },
  "IsUnpaid": false
},{
  "_id": {
    "$oid": "60b7ae772b7a803cdc353a9a"
  },
  "Description": "Study leave",
  "IsActive": true,
  "IsAdmin": false,
  "CreatedBy": "1",
  "ModifiedBy": "1",
  "CreatedDate": {
    "$date": "2021-06-01T22:00:00Z"
  },
  "ModifiedDate": {
    "$date": "2021-06-01T22:00:00Z"
  },
  "IsUnpaid": false
},{
  "_id": {
    "$oid": "60b7ae772b7a803cdc353a9b"
  },
  "Description": "Birthday leave",
  "IsActive": true,
  "IsAdmin": false,
  "CreatedBy": "1",
  "ModifiedBy": "1",
  "CreatedDate": {
    "$date": "2021-06-01T22:00:00Z"
  },
  "ModifiedDate": {
    "$date": "2021-06-01T22:00:00Z"
  },
  "IsUnpaid": false
},{
  "_id": {
    "$oid": "60b7ae772b7a803cdc353a9c"
  },
  "Description": "Family responsibility",
  "IsActive": true,
  "IsAdmin": false,
  "CreatedBy": "1",
  "ModifiedBy": "1",
  "CreatedDate": {
    "$date": "2021-06-01T22:00:00Z"
  },
  "ModifiedDate": {
    "$date": "2021-06-01T22:00:00Z"
  },
  "IsUnpaid": false
},{
  "_id": {
    "$oid": "60b7ae772b7a803cdc353a9d"
  },
  "Description": "Maternity leave",
  "IsActive": true,
  "IsAdmin": false,
  "CreatedBy": "1",
  "ModifiedBy": "1",
  "CreatedDate": {
    "$date": "2021-06-01T22:00:00Z"
  },
  "ModifiedDate": {
    "$date": "2021-06-01T22:00:00Z"
  },
  "IsUnpaid": false
},{
  "_id": {
    "$oid": "60b7ae772b7a803cdc353a9e"
  },
  "Description": "Parental  leave",
  "IsActive": true,
  "IsAdmin": false,
  "CreatedBy": "1",
  "ModifiedBy": "1",
  "CreatedDate": {
    "$date": "2021-06-01T22:00:00Z"
  },
  "ModifiedDate": {
    "$date": "2021-06-01T22:00:00Z"
  },
  "IsUnpaid": true
},{
  "_id": {
    "$oid": "60b7ae772b7a803cdc353a9f"
  },
  "Description": "Adoption leave",
  "IsActive": true,
  "IsAdmin": false,
  "CreatedBy": "1",
  "ModifiedBy": "1",
  "CreatedDate": {
    "$date": "2021-06-01T22:00:00Z"
  },
  "ModifiedDate": {
    "$date": "2021-06-01T22:00:00Z"
  },
  "IsUnpaid": true
},{
  "_id": {
    "$oid": "60b7ae772b7a803cdc353aa0"
  },
  "Description": "Commissioning parental leave",
  "IsActive": true,
  "IsAdmin": false,
  "CreatedBy": "1",
  "ModifiedBy": "1",
  "CreatedDate": {
    "$date": "2021-06-01T22:00:00Z"
  },
  "ModifiedDate": {
    "$date": "2021-06-01T22:00:00Z"
  },
  "IsUnpaid": true
}]